Place,Name,BirthDate,Sex,State,Division,Equipment,BodyweightKg,WeightClassKg,Squat1Kg,Squat2Kg,Squat3Kg,Best3SquatKg,Bench1Kg,Bench2Kg,Bench3Kg,Best3BenchKg,Deadlift1Kg,Deadlift2Kg,Deadlift3Kg,Best3DeadliftKg,TotalKg,Event
1,Natasha Andrews,,F,NL,Sub-Juniors,Raw,141.74,84+,130,135,142.5,142.5,50,55.5,58,58,110,115,125,125,325.5,SBD
1,Olivia Hailey,,F,NL,Juniors,Raw,62.77,63,120,127.5,132.5,132.5,62.5,65,67.5,67.5,145,152.5,157.5,157.5,357.5,SBD
1,Stef Kean,,F,NL,Open,Raw,51.43,52,145,155,163,163,67.5,72.5,77.5,77.5,150,165,-182.5,165,405.5,SBD
1,Maria Rendell,,F,NL,Open,Raw,67.8,69,132.5,137.5,139,139,72.5,77.5,79,79,142.5,152.5,-157.5,152.5,370.5,SBD
1,Chelsea Pink,,F,NL,Open,Raw,73.34,76,-120,125,130,130,57.5,62.5,65,65,132.5,142.5,-150,142.5,337.5,SBD
1,Leah Gregory,,F,NL,Open,Raw,100.59,84+,192.5,200,205.5,205.5,82.5,87.5,90,90,160,170,177.5,177.5,473,SBD
2,Katie Hamlyn,,F,NL,Open,Raw,105.6,84+,137.5,145,150,150,67.5,-72.5,-72.5,67.5,142.5,150,160,160,377.5,SBD
3,Alexa Foley,,F,NL,Open,Raw,116.09,84+,140,-147.5,150,150,70,-75,-75,70,140,147.5,157.5,157.5,377.5,SBD
1,O'Brien Christa,,F,NL,Masters 1,Raw,74.81,76,105,116.5,120,120,47.5,50,52.5,52.5,148,158,-163,158,330.5,SBD
1,Fronia Durnfors,,F,NL,Masters 1,Raw,83.5,84,92.5,102.5,110,110,50,52.5,-55,52.5,115,127.5,137.5,137.5,300,SBD
2,Nadine Barter,,F,NL,Masters 1,Raw,81.38,84,92.5,100,105,105,52.5,57.5,-60,57.5,100,110,115,115,277.5,SBD
1,Karen Mahoney,,F,NL,Masters 1,Raw,117.92,84+,-130,-130,130,130,60,-62.5,-62.5,60,147.5,152.5,-157.5,152.5,342.5,SBD
2,Kim Walsh,,F,NL,Masters 1,Raw,103.5,84+,120,-125,130,130,60,-65,-65,60,137.5,147.5,150,150,340,SBD
1,Anne Beaumaster,,F,NL,Masters 2,Raw,62.92,63,85,87.5,-90,87.5,35,37.5,-40,37.5,110,-115,-115,110,235,SBD
1,Corrina Fahey,,F,NL,Masters 2,Raw,75.19,76,105,116,-117.5,116,47.5,50,52.5,52.5,125,135,137.5,137.5,306,SBD
2,Colleen Bolger,,F,NL,Masters 2,Raw,74.92,76,105,115.5,116.5,116.5,37.5,40,-42.5,40,115,125,-130,125,281.5,SBD
1,Donna Foote,,F,NL,Masters 2,Raw,92.06,84+,120,125,130,130,55,57.5,60,60,140,147.5,152.5,152.5,342.5,SBD
2,Linda Burns,,F,NL,Masters 2,Raw,90.83,84+,110,117.5,125,125,60,62.5,65,65,120,130,140,140,330,SBD
3,Alison Mercer,,F,NL,Masters 2,Raw,103.15,84+,102.5,110,117.5,117.5,45,47.5,-50,47.5,112.5,120,125,125,290,SBD
1,Debbie Northover,,F,NL,Masters 3,Raw,61.95,63,50,-55,55,55,36.5,38,38.5,38.5,82.5,86.5,89.5,89.5,183,SBD
1,Lynn Hurley,,F,NL,Masters 3,Raw,74.71,76,65,70,72.5,72.5,37.5,-40,-40,37.5,95,103,-107.5,103,213,SBD
1,Janet Martin #2,,F,NL,Masters 3,Raw,90.63,84+,95,100,105,105,47.5,50,52.5,52.5,120,130,140,140,297.5,SBD
1,Ruby Koritarov,,F,NL,Masters 4,Raw,103.22,84+,83,84.5,85.5,85.5,47.5,50,-53,50,105,117,117.5,117.5,253,SBD
1,Jaxon Woolridge,,M,NL,Youth 3,Raw,63.34,66,70,73,-77.5,73,35,40,42.5,42.5,70,80,85,85,200.5,SBD
1,Joshua Reid,,M,,Sub-Juniors,Raw,91.54,93,-217.5,217.5,225,225,130,-135,-135,130,195,207.5,215,215,570,SBD
1,Liam Neil,,M,NL,Juniors,Raw,64.3,66,145,157.5,167.5,167.5,87.5,95,-100,95,175,-185,190,190,452.5,SBD
2,Tanner Constantine,,M,NL,Juniors,Raw,65.36,66,145,157.5,165,165,97.5,100,102.5,102.5,167.5,180,-195,180,447.5,SBD
1,Alex Stoyles,,M,NL,Juniors,Raw,72.52,74,165,175,182.5,182.5,105,110,112.5,112.5,175,185,197.5,197.5,492.5,SBD
1,Matthew Genge,,M,NL,Juniors,Raw,104.94,105,285.5,300.5,-309,300.5,152.5,160,165.5,165.5,245,262.5,-275,262.5,728.5,SBD
1,William Hall #2,,M,NL,Juniors,Raw,113.88,120,225,237.5,250,250,140,147.5,-155,147.5,225,232.5,250,250,647.5,SBD
1,Dryden Bussey,,M,NL,Open,Raw,82.34,83,230,-240,240,240,130,135,137.5,137.5,235,247.5,250,250,627.5,SBD
2,Kevin Donoghue,,M,NL,Open,Raw,81.8,83,215,227.5,-232.5,227.5,147.5,-155,-155,147.5,220,235,250,250,625,SBD
3,Trevor Pittman,,M,NL,Open,Raw,82.4,83,215,-225,-225,215,145,-150,-150,145,225,232.5,-250,232.5,592.5,SBD
4,Riley Stoyles,,M,NL,Open,Raw,81.3,83,175,185,-192.5,185,105,110,-112.5,110,185,202.5,-212.5,202.5,497.5,SBD
1,Robert Perry,,M,NL,Open,Raw,92.06,93,205,215,220,220,155,160,-162.5,160,265,282.5,-292.5,282.5,662.5,SBD
2,Evan Collins,,M,NL,Open,Raw,92.84,93,242.5,255,260,260,130,-135,-135,130,252.5,265,-275,265,655,SBD
1,Lucas Wiseman,,M,NL,Open,Raw,104.4,105,290,305,-318,305,155,160,-165,160,310,335,350,350,815,SBD
1,Jarret Quinlan,,M,NL,Open,Raw,116.9,120,200,207.5,-215,207.5,130,137.5,-142.5,137.5,240,257.5,-275,257.5,602.5,SBD
2,John Martin #14,,M,NL,Open,Raw,118.5,120,215,220,-227.5,220,110,-115,-115,110,220,230,-232.5,230,560,SBD
3,Jordan Hanrahan,,M,NL,Open,Raw,117.18,120,155,160,165,165,95,100,102.5,102.5,180,190,200,200,467.5,SBD
1,Jonathan Stanley,,M,NL,Open,Raw,124.26,120+,285,303,312,312,185,195,201.5,201.5,280,290,301,301,814.5,SBD
2,Kristopher Hanrahan,,M,NL,Open,Raw,148.42,120+,280,295,305.5,305.5,177.5,187.5,195,195,282.5,300.5,-314.5,300.5,801,SBD
3,Cody Brennan,,M,NL,Open,Raw,140.87,120+,247.5,260,272.5,272.5,182.5,192.5,-202,192.5,250,265,-280,265,730,SBD
4,Andy Langin,,M,NL,Open,Raw,129.06,120+,287.5,290,-303.5,290,117.5,122.5,125,125,255,272.5,-285,272.5,687.5,SBD
5,Ryan Marsh,,M,NL,Open,Raw,150.82,120+,230,240,250,250,115,-125,-125,115,250,272.5,-280,272.5,637.5,SBD
1,Greg Pike,,M,NL,Masters 1,Raw,81.16,83,195,205,-210,205,120,127.5,132.5,132.5,200,212.5,-227.5,212.5,550,SBD
1,Jim Brown,,M,NL,Masters 1,Raw,109.12,120,155,165,175,175,105,-110,110,110,195,212.5,217.5,217.5,502.5,SBD
1,Rob Dyke,,M,NL,Masters 2,Raw,81.24,83,165,175,-177.5,175,-152.5,152.5,-155,152.5,175,185,200,200,527.5,SBD
1,John Cadigan,,M,NL,Masters 2,Raw,97.94,105,230.5,243,248,248,117.5,125,-127.5,125,230,243,250.5,250.5,623.5,SBD
1,Neil White,,M,NL,Masters 3,Raw,72.75,74,117.5,-127.5,-127.5,117.5,82.5,90,-95,90,137.5,145,150,150,357.5,SBD
1,Andrew Burns,,M,NL,Masters 3,Raw,90.96,93,127.5,137.5,142.5,142.5,80,85,-87.5,85,165,170,175,175,402.5,SBD
1,Don Cormier,,M,NL,Masters 4,Raw,90.4,93,180,190,200,200,107.5,112.5,-117.5,112.5,155,162.5,170,170,482.5,SBD
1,Heather Unsworth,,F,NL,Masters 1,Single-ply,83.64,84,177.5,190,196,196,97.5,102.5,105,105,175,185,-190,185,486,SBD
1,Joanne Rose,,F,NL,Masters 2,Single-ply,62.4,63,140,148,153,153,85,-90,90,90,152.5,163,168,168,411,SBD
2,Nicole Constantine,,F,NL,Masters 2,Single-ply,59.92,63,87.5,92.5,95,95,40,45,-47.5,45,110,117.5,-120,117.5,257.5,SBD
1,Glenda Brown,,F,NL,Masters 2,Single-ply,75.55,76,140,145,-150,145,-95,95,-100,95,152.5,157.5,165,165,405,SBD
1,Sharon McCarthy,,F,NL,Masters 2,Single-ply,88.05,84+,137.5,145,155,155,67.5,72.5,-75,72.5,130,137.5,145,145,372.5,SBD
1,Lisa Froude,,F,NL,Masters 1,Raw,104.46,84+,,,,,55,60,62.5,62.5,,,,,62.5,B
1,Stephen Little,,M,NL,Masters 2,Raw,105.78,120,,,,,140,150,-152.5,150,,,,,150,B
DQ,Charles Banfield,,M,NL,Masters 4,Raw,118.96,120,,,,,-97.5,-97.5,-97.5,,,,,,,B
1,Danielle Hussey,,F,NL,Masters 1,Single-ply,60.56,63,,,,,80,-85.5,85.5,85.5,,,,,85.5,B
1,Alisa Humber Cutler,,F,NL,Masters 2,Single-ply,130.4,84+,,,,,105,110.5,111,111,,,,,111,B
1,Kevin Fowler,,M,NL,Open,Single-ply,148.9,120+,,,,,172.5,182.5,-190,182.5,,,,,182.5,B
