Name,CyrillicName,Sex,BirthDate,Team,BodyweightKg,WeightClassKg,Place,Division,Bench1Kg,Bench2Kg,Bench3Kg,Best3BenchKg,Deadlift1Kg,Deadlift2Kg,Deadlift3Kg,Best3DeadliftKg,TotalKg,Event,Equipment
Elena Esaulova,Елена Эсаулова,F,1970-06-24,Чаплынка,59.6,60,1,M3,52.5,-60,-60,52.5,,,,,52.5,B,Raw
Tatyana Maer,Татьяна Маер,F,1976-02-16,Кривой Рог,70,75,1,M2,40,42.5,,42.5,,,,,42.5,B,Raw
Zhdan Bogachonok,Ждан Богачонок,M,2008-06-13,Мелитополь,48.8,52,1,T1,45,47.5,50,50,,,,,50,B,Raw
Zhdan Bogachonok,Ждан Богачонок,M,2008-06-13,Мелитополь,48.8,52,1,O,45,47.5,50,50,,,,,50,B,Raw
Vladislav Karinin,Владислав Каринин,M,1987-12-20,Запорожье,59.6,60,1,O,67.5,-70,-70,67.5,,,,,67.5,B,Raw
Sergey Seleznev,Сергей Селезнев,M,2005-12-21,Геническ,64,67.5,1,T1,55,60,65,65,,,,,65,B,Raw
Iskander Seytumerov,Искандер Сейтумеров,M,1970-09-27,Мелитополь,67.1,67.5,1,M3,120,127.5,130,130,,,,,130,B,Raw
Iskander Seytumerov,Искандер Сейтумеров,M,1970-09-27,Мелитополь,67.1,67.5,1,PFM,120,127.5,130,130,,,,,130,B,Raw
Ilya Safronov,Илья Сафронов,M,1970-05-22,Синельниково,65,67.5,2,PFM,95,100,105,105,,,,,105,B,Raw
Vitaliy Kravchenko,Виталий Кравченко,M,2000-05-06,Харьков,64,67.5,3,J,80,-85,-87.5,80,,,,,80,B,Raw
Yaroslav Kuzmin,Ярослав Кузьмин,M,1998-09-14,Харьков,64.7,67.5,1,J,95,-97.5,-102.5,95,,,,,95,B,Raw
Vladislav Perelygin,Владислав Перелыгин,M,1998-09-14,Мелитополь,63.2,67.5,2,J,-100,100,-102.5,100,,,,,100,B,Raw
Ilya Glyzkov,Илья Глызков,M,2006-08-24,Синельниково,68,75,1,T1,85,90,95,95,,,,,95,B,Raw
Ilya Gorkin,Илья Горкин,M,2004-08-24,Павлоград,74.3,75,1,T2,45,55,-65,55,,,,,55,B,Raw
Dmitriy Makkeev,Дмитрий Маккеев,M,2003-08-09,Херсон,74,75,2,T3,80,85,90,90,,,,,90,B,Raw
Aleksandr Markov,Александр Марков,M,2002-03-04,Запорожье,73.8,75,1,T3,92.5,95,-97.5,95,,,,,95,B,Raw
Stanislav Chernikov,Станислав Черников,M,2001-01-08,Харьков,72.8,75,3,J,80,85,-90,85,,,,,85,B,Raw
Artem Glushin,Артем Глушин,M,1975-08-15,Черновцы,74,75,1,M2,115,125,-132.5,125,,,,,125,B,Raw
Igor Rodin,Игорь Родин,M,1974-09-10,Харьков,73.9,75,2,M2,105,110,-115,110,,,,,110,B,Raw
Dmitro Nesterenko,Дмитро Нестеренко,M,1968-11-20,Мелитополь,71.8,75,1,M3,100,105,112.5,112.5,,,,,112.5,B,Raw
Dmitro Nesterenko,Дмитро Нестеренко,M,1968-11-20,Мелитополь,71.8,75,1,PFM,100,105,112.5,112.5,,,,,112.5,B,Raw
Igor Grach,Игорь Грач,M,2001-05-11,Ужгород,74,75,2,J,95,-100,-102.5,95,,,,,95,B,Raw
Sergey Davydov,Сергей Давыдов,M,2001-07-05,Запорожье,72.8,75,1,J,97.5,105,107.5,107.5,,,,,107.5,B,Raw
Ivan Tserbakov,Иван Цербаков,M,1999-10-07,Павлоград,82.3,82.5,1,J,75,80,85,85,,,,,85,B,Raw
Oleksandr Nekhoroshev,Олександр Нехорошев,M,1954-06-19,Мелитополь,78.7,82.5,1,M6,90,95,100,100,,,,,100,B,Raw
Oleksandr Nekhoroshev,Олександр Нехорошев,M,1954-06-19,Мелитополь,78.7,82.5,1,PFM,90,95,100,100,,,,,100,B,Raw
Oleg Kholod,Олег Холод,M,1992-09-05,Энергодар,81,82.5,1,O,135,142.5,-147.5,142.5,,,,,142.5,B,Raw
Sergiy Chmarak,Сергій Чмарак,M,1982-01-26,Запорожье,90,90,1,O,170,175,180,180,,,,,180,B,Raw
Aleksey Petrenko,Алексей Петренко,M,1982-04-02,Запорожье,88.3,90,1,MS,130,-140,140,140,,,,,140,B,Raw
Mikhaylo Bugremenko,Михайло Бугременко,M,1979-05-13,Мариуполь,86.5,90,1,M1,145,152.5,-155,152.5,,,,,152.5,B,Raw
Oleksandr Magdalyuk,Олександр Магдалюк,M,1968-05-23,Чаплынка,89.5,90,1,M3,100,107.5,-110,107.5,,,,,107.5,B,Raw
Oleg Kuzmenko,Олег Кузьменко,M,1961-12-19,Запорожье,90,90,1,M4,105,110,-112.5,110,,,,,110,B,Raw
Vitaliy Pulin,Віталій Пулін,M,1970-02-15,Мелитополь,87.9,90,1,PFM,135,140,145,145,,,,,145,B,Raw
Dmitro Bogachonok,Дмитро Богачонок,M,1970-11-10,Мелитополь,88,90,2,PFM,97.5,102.5,107.5,107.5,,,,,107.5,B,Raw
Andrey Kudrya,Андрей Кудря,M,1992-08-10,Запорожье,89,90,3,PFM,95,-100,100,100,,,,,100,B,Raw
Vladimir Rykov,Владимир Рыков,M,2002-09-08,Синельниково,89,90,1,T3,105,-110,115,115,,,,,115,B,Raw
Ivan Kirilenko,Иван Кириленко,M,2003-07-03,Бурчацк,88.5,90,2,T3,105,-110,110,110,,,,,110,B,Raw
Vadim Tereshchenko,Вадим Терещенко,M,1996-08-29,Мелитополь,94,100,2,O,135,140,-142.5,140,,,,,140,B,Raw
Maksim Buryakov,Максим Буряков,M,1989-07-23,Мелитополь,98.7,100,3,O,95,102.5,-110,102.5,,,,,102.5,B,Raw
Valentin Romeus,Валентин Ромеус,M,1977-07-31,Энергодар,93.5,100,1,O,135,142.5,150,150,,,,,150,B,Raw
Vladimir Maer,Владимир Маер,M,1976-09-22,Кривой Рог,104,110,1,M2,120,132.5,135,135,,,,,135,B,Raw
Roman Pulyaev,Роман Пуляев,M,1970-06-21,Геническ,102,110,1,M3,137.5,142.5,147.5,147.5,,,,,147.5,B,Raw
Nikolay Naumenko,Николай Науменко,M,1961-11-21,Мелитополь,103.2,110,1,M5,102.5,107.5,110,110,,,,,110,B,Raw
Vitaliy Smagora,Віталій Смагора,M,1988-04-18,Энергодар,88,90,1,O,185,190,195,195,,,,,195,B,Raw
Vitaliy Smagora,Віталій Смагора,M,1988-04-18,Энергодар,88,90,1,MS,185,190,195,195,,,,,195,B,Raw
Vitaliy Pokinchereda,Віталій Покиньчереда,M,1976-10-26,Геническ,121,125,1,O,205,215,222.5,222.5,,,,,222.5,B,Raw
Vitaliy Pokinchereda,Віталій Покиньчереда,M,1976-10-26,Геническ,121,125,1,M2,205,215,222.5,222.5,,,,,222.5,B,Raw
Nina Romanenko,Ніна Романенко,F,1983-03-25,Мариуполь,60,60,1,O,,,,,150,155,,155,155,D,Raw
Nina Romanenko,Ніна Романенко,F,1983-03-25,Мариуполь,60,60,1,MS,,,,,150,155,,155,155,D,Raw
Zhdan Bogachonok,Ждан Богачонок,M,2008-06-13,Мелитополь,48.8,52,1,O,,,,,90,-100,100,100,100,D,Raw
Zhdan Bogachonok,Ждан Богачонок,M,2008-06-13,Мелитополь,48.8,52,1,T1,,,,,90,-100,100,100,100,D,Raw
Iskander Seytumerov,Искандер Сейтумеров,M,1970-09-27,Мелитополь,67.1,67.5,1,M3,,,,,145,155,160,160,160,D,Raw
Iskander Seytumerov,Искандер Сейтумеров,M,1970-09-27,Мелитополь,67.1,67.5,1,PFM,,,,,145,155,160,160,160,D,Raw
Vladislav Perelygin,Владислав Перелыгин,M,1998-09-14,Мелитополь,63.2,67.5,1,J,,,,,167.5,177.5,180,180,180,D,Raw
Aleksandr Kotovskiy,Александр Котовский,M,1989-01-29,Геническ,75,75,2,O,,,,,190,195,-205,195,195,D,Raw
Denis Smiyan,Денис Смиян,M,1992-09-01,Геническ,74.1,75,1,O,,,,,205,212.5,-220,212.5,212.5,D,Raw
Dmitriy Nesterenko,Дмитрий Нестеренко,M,1968-11-20,Мелитополь,71.8,75,1,M3,,,,,135,145,155,155,155,D,Raw
Dmitriy Nesterenko,Дмитрий Нестеренко,M,1968-11-20,Мелитополь,71.8,75,1,PFM,,,,,135,145,155,155,155,D,Raw
Nikolay Garnov,Николай Гарнов,M,2007-10-18,Харьков,72.8,75,1,T1,,,,,100,110,-120,110,110,D,Raw
Aleksandr Nesterov,Александр Нестеров,M,2005-01-14,Запорожье,73.3,75,1,T2,,,,,120,127.5,135,135,135,D,Raw
Artem Semenov,Артем Семенов,M,2003-02-22,Харьков,74.8,75,1,T3,,,,,135,140,-147.5,140,140,D,Raw
Pavel Kryzhan,Павел Крыжан,M,2003-02-12,Запорожье,72.6,75,2,T3,,,,,127.5,137.5,-140,137.5,137.5,D,Raw
Aleksandr Fominov,Александр Фоминов,M,1995-04-27,Геническ,75.5,82.5,1,O,,,,,205,212.5,220,220,220,D,Raw
Vladimir Nesterov,Владимир Нестеров,M,1987-07-18,Синельниково,82,82.5,2,O,,,,,160,165,170,170,170,D,Raw
Aleksandr Nekhoroshev,Александр Нехорошев,M,1954-06-19,Мелитополь,78.7,82.5,1,M6,,,,,130,140,150,150,150,D,Raw
Aleksandr Nekhoroshev,Александр Нехорошев,M,1954-06-19,Мелитополь,78.7,82.5,1,PFM,,,,,130,140,150,150,150,D,Raw
Eduard Neveselov,Эдуард Невеселов,M,2004-04-16,Запорожье,82.4,82.5,1,T2,,,,,140,145,-155,145,145,D,Raw
Ivan Grigorov,Иван Григоров,M,2002-07-03,Синельнткого,81.5,82.5,1,T3,,,,,120,130,-135,130,130,D,Raw
Vitaliy Pulin,Віталій Пулін,M,1970-02-15,Мелитополь,87.9,90,2,PFM,,,,,150,160,170,170,170,D,Raw
Vitaliy Pulin,Віталій Пулін,M,1970-02-15,Мелитополь,87.9,90,1,M3,,,,,150,160,170,170,170,D,Raw
Dmitriy Bogachonok,Дмитрий Богачонок,M,1970-11-20,Мелитополь,88,90,1,O,,,,,210,217.5,222.5,222.5,222.5,D,Raw
Aleksey Kovalchenko,Алексей Ковальченко,M,1982-07-16,Мелитополь,88,90,3,O,,,,,180,190,-200,190,190,D,Raw
Evgeniy Ustenko,Евгений Устенко,M,1995-06-11,Бердянск,88,90,2,O,,,,,190,205,-230,205,205,D,Raw
Vladislav Gaydamaka,Владислав Гайдамака,M,1998-07-27,Житомир,85,90,4,O,,,,,185,-200,-200,185,185,D,Raw
Vladislav Gaydamaka,Владислав Гайдамака,M,1998-07-27,Житомир,85,90,1,PFM,,,,,185,-200,-200,185,185,D,Raw
Vladislav Gaydamaka,Владислав Гайдамака,M,1998-07-27,Житомир,85,90,1,J,,,,,185,-200,-200,185,185,D,Raw
Vadim Tereshchenko,Вадим Терещенко,M,1996-08-29,Мелитополь,94,100,3,O,,,,,210,215,-217.5,215,215,D,Raw
Maksim Buryakov,Максим Буряков,M,1989-07-23,Мелитополь,98.7,100,2,O,,,,,215,225,-230,225,225,D,Raw
Pavel Donchenko,Павел Донченко,M,1988-06-10,Бердянск,96,100,1,O,,,,,220,240,-245,240,240,D,Raw
Aleksey Elamkov,Алексей Еламков,M,1973-04-17,Мелитополь,108,110,1,M2,,,,,200,-210,-210,200,200,D,Raw
Aleksey Elamkov,Алексей Еламков,M,1973-04-17,Мелитополь,108,110,2,O,,,,,200,-210,-210,200,200,D,Raw
Denis Petrov,Денис Пєтров,M,1984-08-05,Днепр,105,110,1,O,,,,,270,-285,-285,270,270,D,Raw
Zhdan Bogachonok,Ждан Богачонок,M,2008-06-13,Мелитополь,49,52,1,O,45,47.5,50,50,85,-100,100,100,150,BD,Raw
Zhdan Bogachonok,Ждан Богачонок,M,2008-06-13,Мелитополь,49,52,1,T1,45,47.5,50,50,85,-100,100,100,150,BD,Raw
Iskander Seytumerov,Искандер Сейтумеров,M,1970-09-27,Мелитополь,67.1,67.5,1,M3,120,127.5,130,130,145,155,160,160,290,BD,Raw
Iskander Seytumerov,Искандер Сейтумеров,M,1970-09-27,Мелитополь,67.1,67.5,1,PFM,120,127.5,130,130,145,155,160,160,290,BD,Raw
Vladislav Perelygin,Владислав Перелыгин,M,1998-09-14,Мелитополь,63.2,67.5,1,J,-100,100,-102.5,100,167.5,177.5,180,180,280,BD,Raw
Dmitriy Nesterenko,Дмитрий Нестеренко,M,1968-11-20,Мелитополь,71.8,75,1,M3,100,105,112.5,112.5,135,145,155,155,267.5,BD,Raw
Dmitriy Nesterenko,Дмитрий Нестеренко,M,1968-11-20,Мелитополь,71.8,75,1,PFM,100,105,112.5,112.5,145,155,,155,267.5,BD,Raw
Aleksandr Nekhoroshev,Александр Нехорошев,M,1954-06-19,Мелитополь,78.7,82.5,1,PFM,90,95,100,100,130,140,150,150,250,BD,Raw
Aleksandr Nekhoroshev,Александр Нехорошев,M,1954-06-19,Мелитополь,78.7,82.5,1,M6,90,95,100,100,130,140,150,150,250,BD,Raw
Dmitriy Bogachonok,Дмитрий Богачонок,M,1970-11-20,Мелитополь,88,90,1,O,97.5,102.5,107.5,107.5,215,225,-230,225,332.5,BD,Raw
Dmitriy Bogachonok,Дмитрий Богачонок,M,1970-11-20,Мелитополь,88,90,1,M3,97.5,102.5,107.5,107.5,215,225,-230,225,332.5,BD,Raw
Vitaliy Pulin,Віталій Пулін,M,1970-02-15,Мелитополь,87.9,90,1,PFM,135,140,145,145,150,160,170,170,315,BD,Raw
Vadim Tereshchenko,Вадим Терещенко,M,1996-08-29,Мелитополь,94,100,1,O,135,140,-142.5,140,210,215,-217.5,215,355,BD,Raw
Maksim Buryakov,Максим Буряков,M,1989-07-23,Мелитополь,98.7,100,2,O,95,102.5,-110,102.5,215,222.5,-230,222.5,325,BD,Raw
Sergey Poltavets,Сергей Полтавец,M,1993-10-15,Бердянск,85.9,90,1,O,172.5,177.5,180,180,270,285,300,300,480,BD,Raw
