Абдул Рашид Метришев,Абдул-Рашид Метришев
Артем Медведєв,Артем Мєдведєв
Артур Ламєкін,Артур Ламекін
Віталій Рейда,Виталий Рейда
Карина Утенкова,Каріна Утенкова
Олег Жулинский,Олег Жулінський
Віталій Решетняк,Виталий Решетняк
Єфим Степацький,Ефим Степацький
Анатолий Печерский,Анатолій Печерский
Олександр Дживиряга,Олександр Дживіряга
Денис Дубровський,Денис Дубровский
Віктор Галабір,Виктор Галабір
Василь Пашкевич,Васил Пашкевич
Ірина Тихонова,Ірина Тіхонова
Констянтин Янішевський,Костянтин Янішевський,Костянтин Янишевський,Константин Янишевский
Віталій Федорченко,Виталий Федорченко
Анатолій Мальнєв,Анатолій Мальнев
Юрий Саликов,Юрій Саліков
Юрий Жевак,Юрій Жевак
Андрій Ніколаенко,Андрій Николаєнко
Руслан Билан,Руслан Білан
Геннадій Попов,Генадій Попов,Геннадий Попов
Дмитро Сінчук,Дмитро Синчук
Ярослав Пушкарь,Ярослав Пушкар
Віталій Тімшин,Віталій Тимшин
Олександр Артем'Єв,Олександр Артєм'Єв
Вячеслав Глушенко,В'Ячеслав Глушенко
Станіслав Афанасьєв,Станіслав Афанас'Єв
Андрій Несевря,Андрій Нєсєвря
Наталія Пенькова,Наталія Пєнькова
Андрій Звезділін,Андрій Звєзділін
Євген Зуй,Евген Зуй
Володимир Бриженюк,Володимир Бріженюк
Павло Гарькавий,Павло Гаркавий
Віктор Галабір,Виктор Галабир
Станіслав Юрченко,Станислав Юрченко
Назарій Перхулін,Назарій Перхулин
Олександр Кліменко,Олександр Клименко
Станіслав Базіль,Станіслав Базиль
Мирослав Решетніков,Мирослав Решетников
Андрій Вінник,Андрій Винник
Денис Онуфрієнко,Денис Онуфриенко
Валерия Позднякова,Валерія Позднякова
Виталий Белобородов,Віталій Белобородов
Володимир Козін,Володимир Козин
Олександр Вітвіцький,Олександр Витвицький
Віталій Чуніховський,Виталий Чуниховский
Дмитро Кальнин,Дмитро Кальнін
Виталий Столпак,Віталій Столпак
Анатолій Лопаткін,Анатолий Лопаткин
Микола Семікін,Микола Семикін
Руслан Лебединский,Руслан Лебединський
Віталій Торкай,Виталий Торкай
Ашот Єганян,Ашот Еганян
Юрій Уманець,Юрий Уманец
Артур Созінов,Артур Созинов
Руслан Вінник,Руслан Винник
Віктор Межевікін,Віктор Межевикін,Виктор Межевикин
Євгенія Лі,Євгенія Ли,Евгения Ли
Максим Портянік,Максим Портяник
Павло Підтоптаний,Павел Пидтоптаный
Вячеслав Мінтюк,В'Ячеслав Мінтюк
Олександр Калініченко,Олександр Калиниченко
Ігор Старченко,Игорь Старченко
Віталій Середенко,Виталий Середенко
Вадим Алієв,Вадим Алиев
Олег Вагін,Олег Вагин
Андрій Ніколаєнко,Андрій Ніколаенко
Константин Якименко,Констянтин Якименко
Антон Гайдаєнко,Антон Гайдаенко
Олексій Вознік,Олексій Возник
Наріна Кочарян,Нарина Кочарян
Ігор Андрусик,Игорь Андрусик
Марина Железнова,Марина Желєзнова
Станислав Смирнов,Станіслав Смірнов
Денис Васильев,Денис Васильєв
Віктор Петренко,Виктор Петренко
Анатолій Суровцев,Анатолий Суровцев
Юрій Ширинський,Юрий Ширинский
Геннадій Язев,Геннадий Язев
Єфим Степацький,Ефим Степацкий
Ирина Кабакова,Ірина Кабакова
Роман Орєхов,Роман Орехов
Сергій Черешнєв,Сергій Черешнев
Валентин Літвеченко,Валентин Литвеченко
Віталій Алєксєєв,Виталий Алексеев
Віктор Денісенко,Віктор Денисенко
Віталій Середенко,виталий Середенко
Станіслав Базіль,Станислав Базиль
Ігор Марунич,Игорь Марунич
Ігор Бондарєв,Игорь Бондарев
Вячеслав Якубчак,В'Ячеслав Якубчак
Валерій Шевченко,Валерий Шевченко
Ірина Галабір,Ирина Галабир
Ольга Фетісова,Ольга Фетисова
Каріна Киріяк,Карина Киріяк,Карина Кіріяк
Вячеслав Мінтюк,Вячеслав Минтюк
Марія Маркович,Мария Маркович
Ростислав Лісняк,Ростислав Лисняк
Роман Красицький,Роман Краситський
Микита Мітрюхін,Микита Митрюхін
Євгеній Тимохін,Евгений Тимохин
Ігор Клім,Ігор Клим
Віталій Місютинський,Виталий Мисютинский
Юлія Шенкаренко,Юлия Шенкаренко
Наталья Токарева,Натальья Токарева
Артём Литвиненко,Артем Литвиненко
Инна Филимонова,Анна Филимонова
Владислав Кузьміщев,Владислав Кузьмищев
Евгений Коваленко,Євгеній Коваленко
Юрій Спінов,Юрій Спинов
Наталия Колесникова,Наталья Колесникова
Фемистоклис Ламбрионидис,Фемистоклис Ламбрианидис,Фемис Ламбрионидис
Анастасия Павлова,Анна Павлова,Анастасія Павлова
Алексей Москвичёв,Алексей Москвичев
Віталій Алексеєв,Віталій Алєксєєв
Олег Базилевич,Олег Базілевич
Юрий Тарасов,Юрій Тарасов
Арсен Касєєв,Арсен Касеев
Станислав Кумсков,Стас Кумсков
Станіслав Марочко,Станислав Марочко
Игорь Ястребцов,Игорь Ястребцев
Тимур-Булат Магомадов,Тимурбулат Магомадов
Нина Кондрашёва,Нина Кондрашева,Нина Кондрашова
Стэлла Вавилова,Стелла Вавилова
Игорь Щурилов,Игор Щурилов
Карен Данилян,Карен Данильян
Виктор Кузнецов,Віктор Кузнецов
Станислав Шейко,Станіслав Шейко
Александр Сабельфельд,Александр Сабелфельд
Галсут Саарян,Галуст Саарян
Максим Гібець,Максим Гибець
Вячеслав Перехрест,В'ячеслав Перехрест
Ірина Мазур,Ирина Мазур
Станіслав Афанасьєв,Станіслав Афанась'єв
Олег Ильин,Олег Ільїн
Сергій Лук'Янов,Сергій Лук'янов
Дмитро Ломейко,Дмитрий Ломейко
Олександр Яковлєв,Олександр Яковлев
Віталій Омельченко,Виталий Омельченко
Тетяна Хомяк,Тетяна Хом'як
Вячеслав Здоровенко,В'ячеслав Здоровенко
Віктор Міма,Виктор Мима
Дар'я Косенко,Дар'Я Косенко
Юрій Мар'яновський,Юрій Мар'Яновський
Геннадій Зотов,Геннадий Зотов
Станіслав Хаїтов,Станислав Хаитов
Олександр Лісовський,Олександр Лисовський
Вадим Зарудницький,Вадим Зарудницкий
Олександр Мірошниченко,Олександр Мірошніченко
Владимир Шевченко,Володимир Шевченко
Юрій Малигін,Юрий Малыгин
Наталья Кравченко,Наталя Кравченко
Дмитро Стрельніков,Дмитро Стрельников
Дмитро Щадько,Дмитро Щітка
В'ячеслав Телюра,В'Ячеслав Телюра
Наталья Чубанова,Наталя Чубанова
Эдуард Марченко,Едуард Марченко
Вячеслав Мироненко,В'ячеслав Мироненко
Станіслав Смажко,Станислав Смажко
Петро Водоп'ян,Петро Водоп'Ян
Олег Віксіч,Олег Виксич
Станіслав Афанасьєв,Станіслав Афанас'єв
Вячеслав Цыганок,В'ячеслав Циганок,Вечеслав Цыганок
Євген Яримбаш,Евгений Ярымбаш
Юрий Рубанов,Юрий рубанов
Аркадий Шалоха,Аркадій Шалоха
Світлана Дергапутська,Светлана Дергапутская
Игорь Лебедев,Ігор Лєбєдєв
Ібрагім Ільхасан,Ибрагим Ильхасан
Яна Хомич,Яна Хоміч
Наталя Мілеєва,Наталія Мілєєва
Станислав Максимов,Станіслав Максимов
Ярослав Бурикін,Ярослав Бурыкин
Александр Чекачков,Олександр Чекачков
Іван Козир,Иван Козырь
Вячеслав Бордіяну,В'ячеслав Бордіяну
Анатолий Горячок,Анатолій Горячок
Олег Базилевич,Олег Базiлевич
Рафаэль Буклов,Рафаель Буклов
Камиль Гафаров,Камил Гафаров
Ігор Топілін,Ігор Топилін
Александр Асмолов,Олександр Асмолов
Сергій Моїсеєв,Сергій Моісєєв
Сергій Ласіцин,Сергей Ласицин
Володимир Чигиринський,Владимир Чигиринский
Анастасия Тищенко,Анастасія Тіщенко
Антон Васильєв,Антон Васильев
Ильхом Эргашев,Илхом Эргашев
Дмитро Головинський,Дмитрий Головинский
Эрин Шель-Фетенгоф,Эрин шель Фетенгоф
Рінат Заріпов,Ринат Зарипов
Альбіна Черняк,Альбина Черняк
Ольга Писарева,Ольга Пісарєва
В'ячеслав Корсун,Вячеслав Корсун
В'ячеслав Якубчак,Вячеслав Якубчак
Андрій Гринішин,Андрій Гринишин
Игорь Гасюк,Ігор Гасюк
Геннадій Язєв,Геннадій Язев
Сергій Борюк,Сергей Борюк
Светлана Дедюля,ДедюляСветлана
Іван Моргун,Иван Моргун
Виталий Деркач,Віталій Деркач
Игорь Жук,Ігор Жук
Абдул Рашид Метришев,Абдул Метришев,Абдул- Метришев
Валерій Бегінін,Валерий Бегинин
Дарья Кузьмина,Дар'я Кузьміна
Семён Филякин,Семен Филякин
Сергій Карась,Сергей Карась
Степан Сагіров,Степан Сагиров
Вячеслав Панчук,Вячеслав Панчукm,В'ячеслав Панчук
Павел Исаков,Павло Ісаков
Михайло Шадрін,Михаил Шадрин
Олег Фітінгоф,Олег Фітінгов
Тімур Діденко,Тимур Діденко
Володимир Рудніченко,Владимир Рудниченко
Віталій Буряк,Виталій Буряк
Ігор Коновалов,Игорь Коновалов
Юрій Соболєв,Юрий Соболев
Євгеній Кандауров,Евгений Кандауров
Ігор Єпішев,Игорь Епишев
Павло Семкович,Павел Семкович
Мікаель Оганесян,Микаел Оганесян
Богдан Храпаль,Богдан Хропаль
Руслан Рыжих,Руслан Рижих
Олексій Богатирьов,Алексей Богатырев
Вячеслав Овчарук,В'ячеслав Овчарук
Олександр Мітягін,Олександр Мітягин
Юрій Коваленко,Юрий Коваленко
Роман Шишкін,Роман Шишкин
Сергій Данілов,Сергій Данилов
Володимир Василенко,Владимир Василенко
Наталія Цуканова,Наталя Цуканова
Антон Ободовський,Антон Ободовский
Вячеслав Шадорин,В'ячеслав Шадорін
Володимир Коршунов,Владимир Коршунов
Олександр Плотнік,Олександр Плотник
Михайло Желязков,Михаил Желязков
Татьяна Королёва,Татьяна Королева
Айрат Зийннатуллин,Айрат Зиннатуллин
Юлія Муха,Юлия Муха
Віталій Горбунов,Виталий Горбунов
Сергій Піскун,Сергій Пискун
Вячеслав Шутенко,В'ячеслав Шутенко
Роман Дубіна,Роман Дубина
Ігор Лотнік,Ігор Лотник
Крістіна Наришкіна,КрістІна Наришкіна
Дарія Іськів,Дарія іськів
Андрій Манастирський,Андрій Монастирський
Вікторія Гурак,вікторія Гурак
Ігор Богомолов,Игорь Богомолов
Маряна Фісуненко,Мар'яна Фісуненко
Софія Рудь,София Рудь
Єлізавета Солопан,Єлизавета Солопан
Давід Пкін,Давид Пкін
Максим Варченко,Максим Верченко
Ярослав Ховалкін,Ярослав Ховалкин
Гія Троянов,Гия Троянов
Вікторія Зрайченко,Виктория Зрайченко
Євген Герасімов,Євген Герасимов
Дмитро Лавренко,Дмитрий Лавренко
Марія Діденко,Мария Диденко
Станіслав Петрук,Станислав Петрук
Вероніка Венедіктова,Вероніка Венедиктова
Полина Главатских,Полина Главацких
Дмитро Мірошніченко,Дмитро Мірошниченко
Юрій Міхненко,Юрий Михненко
Євгеній Омельяновський,Евгеній Омельяновський
Георгий Каплун,Георгій Каплун
Євген Ситніков,Євген Ситников
Денис Тарівердієв,Денис Тарівердіев,Денис Таривердієв
Віктор Ватагін,Виктор Ватагин
Єфим Степацький,Єфім Степацький
Віктор Боринец,Віктор Боринець
Александр Мальков,Александр Малков
Игорь Стасюк,Ігор Стасюк
Павел Ульрих,Павел Улрих
Юрий Драчёв,Юрий Драчев
Емин Галиб Оглы Мамедов,Оглы Мамедов Эмин Галиб,Емин Мамедов,Эмин Мамедов,Эмин Галиб оглы Мамедов
Роман Аниськин,Роман Анискин
Радій Спицин,Радий Спицин
Николай Аксенов,Николай Аксёнов
Олексій Бондарь,Олексій Бондар
В'ячеслав Бєлоусов,Вячеслав Белоусов
Ігор Шаповал,Игорь Шаповал
Віталій Черних,Виталий Черных
Наталья Гончарова,Наталя Гончарова
Артем Горбачев,Артем Горбачов
Денис Феклістов,Денис Феклистов
Виталий Крыжановський,Виталий Крыжановский
Володимир Андреєв,Володимир Андрєєв
Юрій Хоменко,Юрий Хоменко
Олександр Генсіцький,Олександр Генсицький
Роман Чеботарёв,Роман Чеботарев
Эдуард Исаков,Едуард Исаков
Лариса Ряднова,Лариса РЯДНОВА
Олег Ковальов,Олег Ковалев
Виталий Жуков,Віталій Жуков
Алёна Поделко,Алена Поделко
Таїсія Кузнецова,Таисия Кузнецова
Сурадж Чеботарь,Сурадж Чеботар
Аркадій Бухтійчук,Аркадий Бухтийчук
Едуард Казарян,Эдуард Казарян
Віктор Пастухов,Виктор Пастухов
Світлана Смірнова,Світлана Смірноваm,Светлана Смирнова
Юлія Калінченко,Юлия Калинченко
Андрій Алексєєв,Андрій Алєксєєв
Ніяс Ізмайлов,Нияс Измайлов
Руслан Андреєв,Руслан Андреев
Віктор Кочмар,Виктор Кочмар
Ельмир Тарвердиев,Эльмир Тарвердиев
Сабрі Ібраїмов,Сабри Ибраимов
Віталій Пулін,Виталий Пулин
Інна Пояркова,Инна Пояркова
Владислав Лісовський,Владислав Лисовский
Іван Калмиков,Иван Калмыков
Вероніка Бондарєва,Вероника Бондарева
Віктор Лобко,Виктор Лобко
Віталій Кіяненко,Виталий Кияненко
Ігор Кулик,Игорь Кулик
Станіслав Ніколаєнко,Станислав Николаенко
Антон Жукоцький,Антон Жукоцкий
Анатолій Болюх,Анатолий Болюх
Юрій Ярославський,Юрий Ярославский
Григорій Аветісян,Григорий Аветисян
Юлія Маліновська,Юлія Малиновська,Юлия Малиновская
Денис Охріменко,Денис Охрименко
Віталій Романько,Виталий Романко
Євген Нікітенко,Євген Никитенко
Андрій Ситніков,Андрій Ситников
Владислав Кузнецов,Владислав Кузнєцов
Дар'я Михайлова,Дар'Я Михайлова
Григорій Бараннік,Григорій Баранник
Максим Князев,Максим Князєв
Олексій Орлов,Алексій Орлов
Юрій Богданов,Юрий Богданов
Микола Санін,Николай Санин
Наталья Трухина,Наталия Трухина
Віктор Акулов,Виктор Акулов
Юлія Вовк,Юлия Вовк
Едуард Шушаков,Эдуард Шушаков
Валерій Бенц,Валерий Бенц
Геннадій Семенюк,Геннадий Семенюк
Станіслав Морозов,Станислав Морозов
Станіслав Бороздін,Станислав Бороздин
Іван Пупченко,Иван Пупченко
Ігор Парфінюк,Игорь Парфинюк
Юрій Головань,Юрий Головань
Сергій Прокофьєв,Сергій Прокоф'єв
Ігор Томаш,Игорь Томаш
Андрій Сидельніков,Андрій Сідельников
Максим Новыченко,Максим Новиченко
Юрий Байков,Юрий Бойков
Виталий Головин,Віталій Головін
Вадим Швець,Вадим Швец
Роман Еремашвили,Роман Еремошвили
Виктор Филоненко,Віктор Філоненко
Віталій Терещенко,Виталий Терещенко
Алексей Забабуркин,Олексій Забабуркін
Заур Гусейнов,Заур Гусенов
Антон Пронин,Антон Пронін
Оксана Починкина-Соковнина,Оксана Починкина
Анатолий Лебедев,Анатолій Лебедєв
Виталий Бойко,Віталій Бойко
Валерия Лёвочкина,Валерия Левочкина
Анатолий Шаповалов,Анатолій Шаповалов
Юрий Терещенко,Юрій Терещенко
Юрий Савенко,Юрій Савенко
Артем Иванов,Артем Іванов
Наиль Мухаев,Наил Мухаев
Денис Чебурашкин,Денис. Чебурашкин
Владимир Чернышов,Владимир Чернышев
Марина Джавихишвили,Марина Джавахиашвили,Марина Джавахишвили
Гульфия Хисаметдинова,Гульфия Хисамутдинова
Надія Тищенко,Наталія Тищенко
Тетяна Степацька,Татьяна Степацька
Александр Токарь,Александр токарь
Тимур-Булат Магомадов,Тимир-Булат Магомадов
Виктор Беляев,Віктор Беляєв
Игорь Клубов,Ігор Клубов
Сергій Налейкін,Сергей Налейкин
Наталья Пермякова,Наталя Пермякова
Александр Бойков,Алексанндр Бойков
Катерина Мойсік,Катерина Мойсик
Микола Крішун,Микола Кришун
Ярослав Гав'яда,Ярослав Гав'Яда,Ярослав Гавяда
Иван Лебедев,Іван Лебедєв
Роман Чеботарёв,Роман Чеботарьов
Ирина Шелинговская,Ирина Шепинговская
Кямран Лумедзе,Кямран Лумедзэ
Юрій Олейник,Юрий Олейник
Руслан Ревуцкий,Руслан Ревуцький
Максим Скобелєв,Максим Скобєлєв
Аделаїда Поддуєва,Аделаіда Поддуэва,Аделаіда Поддуєва
Самвел Габриэлян,Самвел Габриелян
Игорь Калыта,Игорь Калита
Игорь Пронин,Ігор Пронін
Эльдар Хайтбаев,Элдар Хайтбаев
Игорь Казаков,Ігор Казаков
Любовь Борец,Любов Борець
Артем Воронцов,Артём Воронцов
Віталій Ковальчук,Виталий Ковальчук
Геннадий Чулденко,Геннадий Чульденко
Игорь Лысенко,Ігор Лисенко
Даниил Рудь,Данил Рудь
Елена Николенко,елена Николенко
Данила Омельченко,Данила омельченко
Артём Дъяков,Артём Дьяков
Юрий Фурман,Юрій Фурман
Карен Чарчян,Карен Харчян
Дарья Степанова,Дар'я Степанова
Роман Пичугин,Роман Пічугін
Артем Медведєв,Артем Медведев
Алексей Тотьмянин,Алексей Тотмянин
Дарья Степаненко,Дар'я Степаненко
Віктор Андріанов,Виктор Андрианов
Юлія Кукіна,Юлия Кукина
Дмитрий Немченко,Дмитро Немченко
Ильдар Шафиев,Илдар Шафиев
Анна Неумержицкая,Неумержицкая Анна
Михаил Лукьянов,Михаил Лукъянов
Юрій Старков,Юрий Старков
Володимир Івасютин,Володимир Івасютін
Євгеній Левковский,Евгений Левковский
Олександр Пашковець,Олександр Пашковец,Александр Пашковец
Едуард Гусєв,Эдуард Гусев
Дмитро Ніколаєв,Дмитро Ніколаев
Микола Белозьоров,Микола Бєлозьоров
Євгеній Руднік,Евгеній Руднік,Євген Руднік
Игорь Данилов,Ігор Данілов
Мария Брайко,Марія Брайко
Віталій Павлушко,Виталий Павлушко
Віталій Сербін,Віталій Сербин
Володимир Коломіець,Володимир Коломієц,Володимир Коломієць
Наталья Кирушева,Наталья КИрушева
Руслан Суботин,Руслан Суботін
Марьям Газиева,Марям Газиева
Никита Саутский,Никита Сауцкий
Наталя Глєбова,Наталья Глебова
Артем Данельянц,Артём Данельянц
Дмитрий Мальков,Дмитрий Малков
Леонтій Мірошник,Леонтий Мирошник
Игорь Курлов,Ігор Курлов
Александр Сыкменёв,Александр Сыкменев
Искандэр Галимов,Искандер Галимов
Флюр Гульмурзаев,Флюр Гулмурзаев
Виталий Бабенко,Віталій Бабенко
Георгий Сасаниа,Георгій Сасаніа
Валерий Смольянинов,Валерий Смолянинов
Антон Спиридонов,Антон Спірідонов
Вячеслав Титов,Вячеслав Тітов
Бэлла Степкина,Белла Степкина
Виктор Маслов,Віктор Маслов
Светлана Ильясова,Светлана Илясова
Степан Слобожанин,Степан слобожанин
Андрей Лавреньтьев,Андрей Лаврентьев
Сергей Фарафонтьев,Сергей Фарафоньтев
Виктория Нефедова,Вікторія Нефьодова
Иван Коновалов,Іван Коновалов
Сергей Слободенюк,Сергій Слободенюк
Руслан Фісун,Руслан Фисун
Дарья Родионова,Дарья Родіонова
Анастасия Зорина,Анастасія Зоріна
Юлия Иванова,Юлія Іванова
Марина Горбачёва,Марина Горбачева,М.П. Горбачева
Иван Пономарёв,Иван Пономарев
Андрей Мыськив,Андрей Мыскив
Игорь Клименко,Ігор Клименко
Валерия Плотникова,Валерія Плотнікова
Іван Ігнаткін,Иван Игнаткин
Павло Наконечний,Павло Наконечный
Максим Скобелєв,Максим Скобелев
Геннадій Островський,Геннадий Островский
Рафаиль Валиуллин,Рафаил Валиуллин
Олег Сарычев,Олег Саричев
Анна Куліш,Анна Кулиш
Максим Потьомкін,Максим Потемкин
Артем Быховец,Артём Быховец
Станислав Милостной,Станисав Милостной
Андрей Сапожонков,Андрей Сапожонков
Олександр Гуштик,Александр Гуштик
Роман Мартиненко,Роман Мартыненко
Іван Подрез,Иван Подрез
Вячеслав Бубало,В'ячеслав Бубало
Анастасия Мельник,Анастасія Мельник
Виктор Абрамов,Віктор Абрамов
Артем Бортник,Артем Бортнік
Анастасія Луценко,Анастасия Луценко
Павло Мельніченко,Павло Мельниченко
Євгеній Муравйов,Евгений Муравьёв
Володимир Коломіець,Володимир Коломіец
Валерій Зозульський,Валерий Зозульский
Вячеслав Сопін,Вячеслав Сопин
Руслан Алімов,Руслан Алимов
Євген Коновалов,Евген Коновалов
Андрій Бобилєв,Андрій Бобилев
Олександр Лукяненко,Олександр Лукяненко,Олександр Лук'Яненко
Андрій Сітніков,Андрій Ситніков
Юрій Тоцький,Юрій Тоцкий
Ігор Артюх,Игорь Артюх
Неля Товстопят,Неля Товстопят
Іван Юрев,Іван Юрєв
Ігор Товстопят,Ігор Товстопят
Володимир Мущінін,Володимир Мущинін
Валерій Гальцов,Валерий Гальцов
Валерій Бенько,Валерий Бенько
Євгеній Кондратенко,Евгений Кондратенко
Ігор Товстопят,Ігор Товстоп'ят
Неля Товстопят,Неля Товстоп'ят
Вячеслав Сопін,В'ячеслав Сопін
Іван Юр'єв,Іван Юр'ев
Олександр Лукяненко,Олександр Лук'яненко
Игорь Паршин,Ігор Паршин
Валентин Калінін,Валентин Калинин
Марія Марченко,Мария Марченко
Ольга Бондарь,Ольга Бондар
Юрий Коптев,Юрій Коптєв
Наталья Леонтьева,Наталья Леоньтьева
Александр Лёзин,Александр Лезин
Наталія Явіляк,Наталья Явиляк
Данило Удовик,Даніїл Удовик
Данііл Сорокін,Даниил Сорокин
Геннадій Іванченко,Генадій Іванченко
Михайло Кондратєв,Михайло Кондрат'єв,Михайло Кондрать'Єв,Михайло Кондратьєв
Евгеній Зіньков,Євгеній Зіньков
Максим Муцький,Максим Муцкий
Вячеслав Булгаков,В'ячеслав Булгаков
Сергій Дяк,Сергей Дяк
Інна Оробець,Імма Оробець
Дарина Русаненко,Дар'я Русанемко
Антоніна Марченко,Антоніма Марченко,Антоніма Марчемко
Дарья Гарнага,Дар'я Гарнага
Ганна Бежевець,Ганна Бсжевець
Олексій Бичков,Олексій Бичков
Ігор Тімофтей,Ігор Тимофтей
Віталій Коломієць,Віталій Коломіець
Олександр Рубець,Олександр Рубец
Назар Чичотка,Назар Чихотка
Олег Чеботаев,Олег Чеботаєв
Евгений Левченко,Євгеній Левченко
Ростислав Бабюк,Ростислав Баб'юк
Євгеній Белий,Євгеній Бєлий
Анастасія Марченко,Анастасия Марченко
Вадим Щукин,Вадим Щукін
Єлизавета Толубенко,Елизавета Толубенко
Данііл Пасічник,Даніїл Пасічник
Маряна Дьорка,Мар'яна Дьорка
Євгенія Тишакова,Євгенія Тішакова
Юлія Прудіус,Юлія Прудиус
Сергій Поздєєв,Сергій Поздеєв
Віолета Чеботар,Віолетта Чеботар
Костянтин Мусієнко,Костянтин Мусіенко
Володимир Рисєв,Володимир Рисев
Виктор Бушманов,Віктор Бушманов
Даря Русаненко,Дар'я Русаненко,Дарина Русаненко
Владислав Герасимов,Владислав Герасімов
Виталий Лебедев,Віталій Лебедєв
Александр Дрогобужев,Алек Дрогобужев
Геннадий Ерёмин,Геннадий Еремин
Вячеслав Цыганок,Вячеслав Циганок
Вадим Ложечкін,Вадим Ложечкин
Сергей Паньков,Сергей Панков
Любовь Кирязиева,Любовь Кирьязиева
Эльдар Хаитбаев,Элдар Хаитбаев
Сайдулла-Ефендий Саденов,Сайдулла-Эфендий Саденов
Юрий Кореньков,Юрий Коренков
Руслан Мехралієв,Руслан Мехралиев
Пётр Кучерявых,Петр Кучерявых
Юлія Зуєва,Юлия Зуева
Игорь Ткаченко,Ігор Ткаченко
Александр Марченко,Олександр Марченко
Иван Козлов,Іван Козлов
Андрей Кисель,Андрій Кисіль
Александр Даньщиков,Александр Данщиков
Альберт Корсунов,Алберт Корсунов
Игорь Шевченко,Ігор Шевченко
Ильсур Атнагулов,Илсур Атнагулов
Едуард Колганов,Эдуард Колганов
Динис Хакимов,Денис Хакимов
Никита Гребенков,Никита Гребеньков
Анастасия Назарёва,Анастасия Назарева
Лусинэ Хачатурян,Лусинэ -Хачатурян
Артём Сбитнев,Артем Сбитнев
Юлия Сорокина,Юлія Сорокіна
Александра Кальченко,Александра Калъченко
Виктор Фоменко,Віктор Фоменко
Ангелина Еловикова,Ангелина Елоникова
Антон Товстига,Антон Товстыга
Денис Полищук,Денис Поліщук
Даниела Колесник,Даниэла Колесник
Владимир Критский,Владимир Крицкий
Роман Дьяченко,Роман Дяченко
Игорь Филиппов,Игорь Филлипов
Віталій Наджафов,Виталий Наджафов
Николай Ильичёв,Николай Ильичев
Хож-Ахмед Эльдаров,Хожахмед Эльдаров
Тимофей Негара,Тимофей Нагара
Ольга Главатських,Ольга Главатских
Дмитрий Бельков,Дмитрий Белков
Володимир Налейкін,Владимир Налейкин
Михаил Пальчук,Михаил Палчук
Ягшигуль Султаниязова,Ягшигуль Султанниязова
Фейруза Латыпова,Файруза Латыпова
Александр Воробьев,Александр Воробъев
Тимур-Булат Магомадов,Тимирбулат Магомадов
Ирина Бехтерева,Ирина Бетерева,Ирина Беxтерева
Ралит Мухаматьянов,Ралит Муаматьянов
Нияз Мифтахов,Нияз Мифтаов
Александр Дорохов,Александр Дороов
Виктор Соловых,Виктор Соловы
Ренат Ахметов,Ренат Аметов
Альберт Хузиахметов,Альберт Хузиаметов
Грачик Егозарьян,Грачик Егозарян
Евгений Фархутдинов,Евгений Фарутдинов
Вячеслав Габараты,Вячеслав Габарати
Дмитрий Дёмин,Дмитрий Демин
Татьяна Завьялова,Татьяна Гаврилова
Надежда Заболоцкая,Надежда Заболотская
Серегей Шерстнев,Сергей Шерстнев
Илья Кормилицин,Илья Кормилицын
Владимир Кузьмичевский,Владимир Кузмичевский
Павел Акиньшин,Павел Акиншин
Алексей Седелкин,Алексей Сиделкин
Николай Грачёв,Николай Грачев
Владимир Лукьяненко,Владимир Лукяненко
Евгений Хохлов,Євгеній Хохлов
Дмитрий Лукьянов,Дмитрий Лукъянов
Наталья Зотова-Паюсова,Наталья Паюсова,Наталья Зотова
Рафаиль Ромашкин,Рафаил Ромашкин
Владислав Тимиргалеев,Владислав Тимиргалиев
Тимур Костарев,тимур Костарев
Лариса Іванова,Лариса Иванова
Фаиль Гирфанов,Фаил Гирфанов
Олександр Коротич,Александр Коротыч
Дмитро Дерев'янко,Дмитрий Деревянко
Вадим Лізарук,Вадим Лизарук
Павло Батоговський,Павел Батоговский
Андрій Шевчук,Андрей Шевчук
Наиль Амрахов,Наил Амрахов
Сергій Дем'янов,Сергій Дем'Янов
Алексей Лукьяненко,Алексей Лукяненко
Вагэ Вартанян,Ваге Вартанян
Сергей Бобков,Сергій Бобков
Вадим Сокушев,Вадим Сопушев
Дмитрий Цымбалистый,Дмитрий Цимбалистый
Игорь Бельков,Игорь Белков
Алексей Любиминко,Алексей Любименко
Андрей Норицын,Андрей Норицин
Євгеній Гончаренко,Евгений Гончаренко
Константин Воробьев,Константин Воробъев
Михаил Куркомели,Михаил Куркомили
Ольга Киселёва,Ольга Киселева
Самат Айтмагамбетов,Самат Айтмагомбетов
Александр Петров,Адександр Петров
Сергей Ватолин,Сергій Ватолін
Валерий Евсеев,Валерии Евсеев
Юрий Николов,Юрій Ніколов
Руслан Зоркин,Руслан Зорькин
Валерий Нугуманов,Валерий Мугуманов
Ренад Ахметов,Ренат Ахметов
Интал Галеев,Интал Галлеев
Михаил Журавлев,Михаил Журавлёв
Денис Лукьянов,Денис Лук'Янов
Леонид Савельев,Леонид Савелев
Михаил Левченко,Михаил Левченко Ю.
Никита Марьин,Никита Марин
Алексей Бетёв,Алексей Бетев
Олег Исаев,Олег Ісаєв
Микаэл Рзаев,Микаел Рзаев
Надежда Реутова,надежда Реутова
Никита Кузьмицкий,Никита Кузмицкий
Юрий Лукьянчик,Юрий Лукъянчик
Виктория Губанова,Вікторія Губанова
Артём Ливанов,Артем Ливанов
Оксана Биленко,Оксана Біленко
Евгений Кавригин,Евгений Ковригин
Нарине Албертян,Наринэ Альбертян
Данил Курзанцев,Даниил Курзанцев
Ахмед-Хан Батыров,Ахмед-хан Батыров
Вячеслав Прохоров,В'ячеслав Прохоров
Павел Остафийчук,Павел Остафичук
Наталия Загребина,Наталья Загребина
Динара Шпейтер,Динара Шпейдер
Елена Парфенова,Елена Парфёнова
Борис Комиссаров,Комиссаров Борис
Наталия Пугачева,Наталия Пугачёва
Светлана Королёва,Светлана Королева
Ралина Мухаммадиева,Ралина Мухаммадеева
Ксения Большакова,Ксения Болшакова
Дмитрий Кузьмин,Дмитрий Кузмин
Данила Аманбаев,Данил Аманбаев
Наталья Шаповалова,Наталия Шаповалова
Никита Сыровацкий,Никита Сыроватский
Богдан Зикин,Богдан Зикін
Наталья Григорьева,Наталя Григор'єва
Владимир Пьяньков,Владимир Пьянков
Артем Житницкий,Артем Житницький
Галина Абрамова,Галина Тукаль
Константин Зайко,Константин Заико
Ксения Галл-Савальская,Ксения Галль-Савальская
Станислав Димитрюк,Станислав Дмитрюк
Рамиль Самигуллин,Рамиль Самигулин
Амридин Нуров,Амридим Нуров
Андрей Жаренов,Андрей Жарёнов
Руслан Кильба,Руслан Килба
Федор Овчинников,Фёдор Овчинников
Олег Решетнев,Олег Решетнёв
Роман Алябьев,Роман Алябев
Александр Криворучко,Алексаедр Криворучко
Владимир Конопацкий,Владимир Конопатский
Василий Танасийчук,Василий Танасейчук
Пётр Дрожчаный,Петр Дрожчаный
Артём Шудренко,Артем Шудренко
Ильдар Шириязданов,Ильдар Шариязданов
Юлдаш Зайдаханов,Юлдаш Задайханов
Ярослав Трубічкін,Ярослав Трубичкин
Дмитрий Голуб,Дмитрий Голубь
Илья Красько,Илья Краско
Андрей Гаврильков,Андрей Гаврилков
Гигам Хамоян,Гегам Хамоян
Ильдар Кузяшев,Илдар Кузяшев
Виталий Атминеев,Виталий Атменеев
Лучиан Пэлэдуцэ,Лучиан Пэлэдуце
Ярослав Ирьянов,Ярослав Ирянов
Стефан Талпа,Стэфан Талпа
Виктор Найденов,Виктор Найдёнов
Никита Ильюхин,Никита Илюхин
Элвин Гулиев,Эльвин Гулиев
Владислав Селезеньков,Владислав Селезенков
Феріде Еракаєва,Фериде Эракаева
Эдуард Григорян,Едуард Григорян
Вячеслав Чмелёв,В'ячеслав Чмельов
Олександр Бєлкін,Олександр Бєлкин
Артем Скалецький,Артем Скалецкий
Гюльміра Стельмак,Гюльмира Стельмак
Андрій Римарчук,Андрей Римарчук
Энвер Ниязиев,Альмерович Ниязиев Энвер
Ілля Сімчук,Ілля Симчук
Крістіна Василевська,Кристина Василевська
Миллеана Регушевская,Милеана Регушевская
Крістіна Матвєєва,Крістіна Матвеєва
Альона Купрієнко,Альона Купріенко
Іван Чупрій,Иван Чуприй
Костянтин В'Язовський,Костянтин В'язовський
Ігор Тилічко,Ігор Тиличко
Юрій Кондрат'єв,Юрій Кондрать'Єв,Юрій Кондратьєв
Жорж-Сейду Толога,Жорж-Сейду Тогола,Жорж Сейду Толога,Жорж Сейду Тогола
Олександр Валівашенко,Олександр Валивашенко,Александр Валивашенко
Сергій Каханчік,Сергій Каханчик
Емма Хоролська,Емма Хорольска
Денис Кіряев,Денис Киряєв
Євгеній Хітяєв,Євгеній Хитяєв
Каріна Бахтадзе,Карина Бахтадзе
В'ячеслав Недавній,Вячеслав Недавній
Капітоліна Гущина,Капіталіна Гущина
Петро Телпегін,Петро Толпегін
Василій Воднік,Василь Водник
Володимир Лук'янов,Володимир Лукьянов,Володимир Лук'Янов
Євген Шутурмінський,Євген Шутурминський
Наталія Якубовська,Наталка Якубовская
Владислав Павлюк,Владислав Повлюк
Валерій Спатарь,Валерій Спатар
Максим Мосінов,Максим Мосинов
Олександр Метіхатко,Олександр Метихатко
Олег Сисоєв,Олег Сисоев
Євгеній Опенішев,Євгеній Опьонишев
Євген Лук'янов,Євген Лукянов,Євген Лукьянов
Артем Туряниця,Артем Туряница
Андрій Бронішєвський,Андрій Бронішевський
Яніна Савєльєва,Яніна Савельєва
Василь Лохаївскій,Василь Лохаївський
Алина Гусева,Алена Гусева
Сергій Миколайчук,Сергей Миколайчук
Євгеній Болобан,Євген Болобан
Володимир Комарніцький,Володимир Комарницький
Микола Поліщук,Миколай Поліщук
Микола Рудий,Миколай Рудий
Олександр Оніщенко,Олександр Онищенко
Сергій Захарьєв,Сергій Захар'єв
Артур Масловець,Артур Масловец
Альберт Мінасян,Альберт Минасян
Денис Смаглій,Денис Смаглий
Сергій Павєльєв,Сергій Павельєв
Георгій Димченко,Георгий Димченко
Андрій Сомов,Андрей Сомов
Олександр Попєль,Олександр Попель
Вадим Тітарєв,Вадим Тітарев
Євгеній Омельяновський,Євгеній Омеляновський
Ігор Крікунов,Ігор Крикунов
Артем Алексеєнко,Артем Алексєєнко
Євгеній Істомін,Евгений Истомин
Олександр Єрмолінський,Олександр Єрмолинський
Микита Ейрушевич,Микита Єйрушевич
Василь Свідрук,Василь Свідрук
Леонід Теліпайло,Леонид Телипайло
Анастасія Калашнікова,Анастасія Калашникова
Виталий Комарчук,Віталій Комарчук
В'ячеслав Мінтюк,Вячеслав Мінтюк
Олександр Міронов,Олександр Миронов
Сергій Дерев'яга,Сергій Дерев'Яга
Василь Свідрук,Василь Свидрук
Павло Лукьянов,Павло Лук'янов
Вікторія Горулько,Виктория Горулько
Ксенія Плєва,Ксения Плева
Сергій Гринішин,Сергій Гринишин
Іван Юрескул,Иван Юрескул
Олексій Тіщенко,Олексій Тищенко
Максим Ніщімний,Максим Ніщимний
Віталій Безручко,Виталий Безручко
Григорій Омельяненко,Григорий Омельяненко
Олександр Брізицький,Олександр Бризицький
Генадій Кравченко,Геннадій Кравченко
Юлія Колягіна,Юлия Колягина
Віталій Мельніченко,Віталій Мельниченко
Діна Шевченко,Дина Шевченко
Станислав Подобед,Станіслав Подобєд
В'ячеслав Коваленко,Вячеслав Коваленко
В'ячеслав Бородай,Вячеслав Бородай
Артем Чупрін,Артем Чуприн
Владимир Алиев,Володимир Алієв
Геннадій Васильєв,Геннадій Василь'ев
Олексій Рокочий Мол,Олексій Рокочий мол
Олег Тімченко,Олег Тимченко
Ігор Кірьянов,Ігор Кір'янов,Ігор Кірь'янов
Денис Лукьянченко,Денис Лук'янченко
Виктория Лаврищева,Вікторія Лавріщева
Едуард Безбожній,Едуард Безбожний
Олександр Шепіль,Олександр Шепель
Сергій Сіманович,Сергій Симанович
Олексій Лісогор,Алексей Лисогор
Максим Шеін,Максим Шеїн
Олександр Бондарь,Олександр Бондар
Олександр Желкевич,Олександр Жолкевич
Нікіта Лагода,Никита Лагода
Євген Кринчік,Євген Кринчик
Вадим Сугоняка,Вадим Суганяко
Дмитро Ситнік,Дмитро Ситник
Іван Антонов,Иван Антонов
Анастасія Воронухіна,Анастасия Воронухина
Олег Піскун,Олег Пискун
Станіслав Мельник,Станислав Мельник
Юрій Команов,Юрий Команов
Олексій Чичерін,Алексей Чичерин
Максим Хордіков,Максим Хордиков
Валерія Суханова,Валерия Суханова
Юлія Голєва,Юлия Голева
Ярослав Калугін,Ярослав Калугин
Богдан Несвіт,Богдан Несвит
Марина Марініна,Марина Маринина
Іола Бєлка,Иола Белка
Віта Рудакова,Вита Рудакова
Олександр Єрмаченко,Олександр Ермаченко
Євгенія Бондарєва,Евгения Бондарева
Олександр Агеєнко,Олександр Агєєнко
Юрій Кукса,Юрий Кукса
Анастасія Коц,Анастасия Коц
Анатолій Мар'єнков,Анатолій Мар'Єнков
Дмитро Великодний,Дмитрий Великодный
Анна Соболєва,Анна Соболева
Андрій Халіпа,Андрій Халипа
Іван Тімохін,Іван Тимохін
Володимир Лебєдєв,Володимир Лєбєдєв
Сніжана Черічанська,Сніжана Черичанська
Віталій Котелко,Виталий Котелко
В'ячеслав Бевзюк,В'Ячеслав Бевзюк
Володимир Янєв,Володимир Янев
Олександр Тюрніков,Олександр Тюрников
Віталій Чумак,Виталий Чумак
Олексій Харковенко,Алексей Харковенко
Анастасія Скидан,Анастасія Скідан
Ірина Панченко,Ирина Панченко
Максим Бугір,Максим Бугир
Данііл Кривцун,Даниїл Крівцун
Олексій Шульгін,Олексій Шульгин
Лілія Карпенко,Лилия Карпенко
Юрій Гаврілов,Юрій Гаврилов
Станіслав Калашніков,Станіслав Калашников
Ольга Писарєва,Ольга Писарева
Азамхон Тураев,Азъамхон Тураев
Олег Ефремов-Отченаш,Олег Ефремов Отченаш
Марианна Ефремова-Отченаш,Марианна Ефремова Отченаш
Наталья Де Симон,Наталья Де-Симон
Іван Єпанов,Иван Епанов
Эскендер Сеит-Абдулов,Эскендер Сеит Абдулов
Віталій Зарецький,Виталий Зарецкий
Олександр Стародубов,Александр Стародубов
Ігор Левченко,Игорь Левченко
Тимур Сейт-Арифов,Тимур Сейт Арифов
Сеит-Ваап Мамутов,Сеит Ваап Мамутов
Ярослав Макаровец,Ярослав Макаровець
Радіон Власенко,Радион Власенко
Меланья Мартиросян,Меланя Мартиросян
Алексей Родик-Князев,Алексей Родик Князев
Бадма-Доржо Будаев,Бадма Доржо Будаев
Віталій Пестрак,Виталий Пестрак
Руслан Сорочинський,Руслан Сорочинский
Микола Трішкін,Микола Тришкин
Андрій Батуркін,Андрій Батуркин
Володимир Косов,Владимир Косов
Валерій Зімоздра,Валерий Зимоздра
Ігор Тараненко,Игорь Тараненко
Юрій Попович,Юрий Попович
Владислав Євченко,Владислав Евченко
Вадим Любарський,Вадим Любарский
Вікторія Тарасова,Виктория Тарасова
Артем Алексеєнко,Артем Алексеенко
Аріна Олейник,Арина Олейник
Олег Нідзельский,Олег Нидзельский
Богдан Демків,Богдан Демкив
Вячеслав Бобир,В'ячеслав Бобир
Ігор Журавко,Игорь Журавко
Віктор Хіміч,Виктор Химич
Ніна Романенко,Нина Романенко
Алексей Червен-Водали,Алексей Червен Водали
Ольга Иванова,Ольга Іванова
Артем Касьяненко,Артем Кас'яненко
Софія Кантеладзе,София Кантеладзе
Роман Половников,Роман Половніков
Дмитрий Влавацкий,Дмитрий Влаватский
Марина Сюзёва,Марина Сюзева
Костянтин Секкер,Константин Секкер
Марк Дьяченко,Марк Дъяченко
Антон Харевич,Антон Хоревич
Віктор Мариненко,Виктор Мариненко
Эльдар Маммадов,Эльдар Мамедов
Гюндюз Мамедов,Гюндуз Маммедов
Гюндуз Исмаилов,Гюндюз Исмаилов
Роман Ахмадов,Роман Ахмедов
Вагиф Маммедов,Вагиф Мамедов
Агшин Исмаилов,Акшин Исмаилов
Назарий Д'ячук,Назарий Дячук,Назар Д'ячук
Сергей Дегтярёв,Сергей Дегтярев
Никита Ейрушевич,Никита Еирушевич
Богдан Піщиць,Богдан Пищиц
Андрей Созонтов,Созонтов
Антон Околець,Околец
Наталья Сорока,Литвиненко
Ігор Ромасенко,Ромасенко
Ігор Франко,Игорь Франко
Ірина Каірова,Каирова
Руслана Молдованова,Молдованова
Деян Фіткевич,Фиткевич
Кертулай Сеит-Асманов,Кертулай Сеит Асманов
Макарій Дутка,Макарий Дутка
